<?xml version="1.0" encoding="utf-8"?>
<!-- Generator: Adobe Illustrator 23.0.0, SVG Export Plug-In . SVG Version: 6.00 Build 0)  -->
<svg version="1.1" id="Layer_1" xmlns="http://www.w3.org/2000/svg" xmlns:xlink="http://www.w3.org/1999/xlink" x="0px" y="0px"
	 width="232px" height="16px" viewBox="0 0 232 16" style="enable-background:new 0 0 232 16;" xml:space="preserve">
<style type="text/css">
	.st0{fill:#FFFFFF;stroke:#FFFFFF;stroke-width:0.5;stroke-miterlimit:10;}
</style>
<g>
	<path class="st0" d="M4.1,12H3.3V2.2L1,3.8L0.6,3.1l2.6-1.8h1V12z"/>
	<path class="st0" d="M14.4,6.7c0,3.3-1.2,5.5-3.7,5.5C8,12.2,6.9,10,6.9,6.7c0-3.3,1.1-5.6,3.7-5.6C13.2,1.2,14.4,3.4,14.4,6.7z
		 M7.8,6.7c0,2.8,0.8,4.8,2.9,4.8c2,0,2.9-1.9,2.9-4.8c0-2.9-0.8-4.8-2.9-4.8C8.5,1.9,7.8,3.9,7.8,6.7z"/>
	<path class="st0" d="M23,4c0,1.5-0.9,2.2-1.9,2.5v0c1.2,0.3,2.3,1.1,2.3,2.8c0,2.1-1.7,3-3.7,3c-2,0-3.7-0.9-3.7-3
		c0-1.6,1.1-2.5,2.3-2.7v0c-1-0.3-2-1.1-2-2.5c0-1.9,1.6-2.8,3.3-2.8C21.4,1.2,23,2.1,23,4z M16.9,9.2c0,1.6,1.2,2.3,2.8,2.3
		c1.6,0,2.8-0.7,2.8-2.3c0-1.6-1.5-2.3-2.8-2.3C18.4,6.9,16.9,7.6,16.9,9.2z M22.1,4c0-1.2-1-2-2.5-2c-1.4,0-2.4,0.8-2.4,2
		c0,1.6,1.1,2.2,2.4,2.2C20.9,6.1,22.1,5.5,22.1,4z"/>
	<path class="st0" d="M32.5,6.7c0,3.3-1.2,5.5-3.7,5.5c-2.6,0-3.7-2.2-3.7-5.5c0-3.3,1.1-5.6,3.7-5.6C31.3,1.2,32.5,3.4,32.5,6.7z
		 M25.9,6.7c0,2.8,0.8,4.8,2.9,4.8c2,0,2.9-1.9,2.9-4.8c0-2.9-0.8-4.8-2.9-4.8C26.7,1.9,25.9,3.9,25.9,6.7z"/>
	<path class="st0" d="M34.9,1.3h3.2c1.8,0,3.5,0.6,3.5,2.9c0,2.4-1.7,3.1-3.5,3.1h-2.4V12h-0.9V1.3z M35.8,6.6H38
		c1.4,0,2.7-0.4,2.7-2.3c0-1.9-1.3-2.2-2.8-2.2h-2.2V6.6z"/>
	<path class="st0" d="M42.7,10.8h1l-1.1,3.4H42L42.7,10.8z"/>
	<path class="st0" d="M49.8,1.3h0.9v4.8h5.7V1.3h0.9V12h-0.9V6.9h-5.7V12h-0.9V1.3z"/>
	<path class="st0" d="M60.3,1.3H63c3.3,0,5.3,1.9,5.3,5.4c0,3.5-2,5.4-5.3,5.4h-2.7V1.3z M61.1,11.3h1.7c3,0,4.6-1.7,4.6-4.6
		c0-2.9-1.6-4.6-4.6-4.6h-1.7V11.3z"/>
	<path class="st0" d="M70.7,1.3h3.5c1.9,0,3.3,0.8,3.3,2.8c0,1.4-0.9,2.2-2,2.5v0c0.8,0.2,1.2,0.8,1.6,2.1c0.3,1.2,0.6,2.2,1,3.3
		h-0.9c-0.3-0.9-0.7-2.5-0.9-3.3C75.7,7.4,75.3,7,73.8,7h-2.2v5h-0.9V1.3z M71.6,6.3H74c1.6,0,2.6-0.7,2.6-2.1
		c0-1.6-1.1-2.1-2.5-2.1h-2.4V6.3z"/>
	<path class="st0" d="M84.9,15H84V4.1h0.8v1.6h0c0.5-1,1.5-1.7,2.7-1.7c2.1,0,3.2,1.8,3.2,4.1c0,2.3-1.2,4.1-3.3,4.1
		c-1.2,0-2.1-0.7-2.6-1.7h0V15z M87.5,4.7c-1.7,0-2.6,1.4-2.6,3.4c0,2,1,3.4,2.6,3.4c1.7,0,2.5-1.5,2.5-3.4
		C90,6.2,89.1,4.7,87.5,4.7z"/>
	<path class="st0" d="M94.1,1v11h-0.9V1H94.1z"/>
	<path class="st0" d="M102.3,12v-1.4h0c-0.5,1-1.5,1.5-2.6,1.5c-1.8,0-2.8-1.2-2.8-2.9V4.1h0.9V9c0,1.5,0.5,2.5,2.1,2.5
		c1.2,0,2.4-0.8,2.4-2.8V4.1h0.9V12H102.3z"/>
	<path class="st0" d="M110,5.1c-0.6-0.3-1.3-0.4-1.9-0.4c-0.9,0-1.8,0.3-1.8,1.3c0,0.9,0.6,1.2,1.8,1.7c1.4,0.5,2.4,1.1,2.4,2.4
		c0,1.6-1.3,2.2-2.7,2.2c-0.8,0-1.8-0.2-2.5-0.6l0.2-0.7c0.7,0.3,1.6,0.6,2.3,0.6c1.1,0,1.8-0.4,1.8-1.4c0-0.9-0.8-1.3-2-1.8
		c-1.4-0.5-2.2-1.1-2.2-2.2c0-1.5,1.3-2.1,2.6-2.1c0.8,0,1.5,0.1,2.1,0.4L110,5.1z"/>
	<path class="st0" d="M121.7,6.9c0-1.5-0.7-2.2-2.2-2.2c-0.6,0-1.4,0.1-2.1,0.4l-0.2-0.7c0.6-0.2,1.5-0.4,2.3-0.4c1.9,0,3,0.9,3,2.8
		v3.4c0,0.6,0,1.3,0.2,1.9h-0.8c-0.1-0.4-0.1-1-0.2-1.5h0c-0.4,0.9-1.3,1.7-2.8,1.7c-1.3,0-2.5-0.7-2.5-2.3c0-2.2,2.2-2.7,5.2-2.7
		V6.9z M121.3,7.9c-2.2,0-4,0.4-4,2c0,1,0.6,1.7,1.7,1.7c1.8,0,2.7-1.4,2.7-2.9V7.9H121.3z"/>
	<path class="st0" d="M130.2,15h-0.9V4.1h0.8v1.6h0c0.5-1,1.5-1.7,2.7-1.7c2.1,0,3.2,1.8,3.2,4.1c0,2.3-1.2,4.1-3.3,4.1
		c-1.2,0-2.1-0.7-2.6-1.7h0V15z M132.8,4.7c-1.7,0-2.6,1.4-2.6,3.4c0,2,1,3.4,2.6,3.4c1.7,0,2.5-1.5,2.5-3.4
		C135.3,6.2,134.5,4.7,132.8,4.7z"/>
	<path class="st0" d="M143.2,6.9c0-1.5-0.7-2.2-2.2-2.2c-0.6,0-1.4,0.1-2.1,0.4l-0.2-0.7c0.6-0.2,1.5-0.4,2.3-0.4c1.9,0,3,0.9,3,2.8
		v3.4c0,0.6,0,1.3,0.1,1.9h-0.8c-0.1-0.4-0.1-1-0.2-1.5h0c-0.4,0.9-1.3,1.7-2.8,1.7c-1.3,0-2.5-0.7-2.5-2.3c0-2.2,2.2-2.7,5.2-2.7
		V6.9z M142.9,7.9c-2.2,0-4,0.4-4,2c0,1,0.6,1.7,1.7,1.7c1.8,0,2.7-1.4,2.7-2.9V7.9H142.9z"/>
	<path class="st0" d="M145.6,4.1h1.5V2.2h0.9v1.9h1.9v0.7H148v5.3c0,1.1,0.2,1.3,1.1,1.3c0.3,0,0.6,0,0.8-0.1V12
		c-0.3,0-0.7,0.1-1,0.1c-1.4,0-1.8-0.6-1.8-2V4.8h-1.5V4.1z"/>
	<path class="st0" d="M152.7,1v4.5h0c0.5-1,1.4-1.5,2.6-1.5c1.8,0,2.8,1.2,2.8,2.9V12h-0.9V7.2c0-1.5-0.5-2.5-2.1-2.5
		c-1.2,0-2.4,0.8-2.4,2.8V12h-0.9V1H152.7z"/>
	<path class="st0" d="M163.8,4.1h1.5V2.2h0.9v1.9h1.9v0.7h-1.9v5.3c0,1.1,0.2,1.3,1.1,1.3c0.3,0,0.6,0,0.8-0.1V12
		c-0.3,0-0.7,0.1-1,0.1c-1.4,0-1.8-0.6-1.8-2V4.8h-1.5V4.1z"/>
	<path class="st0" d="M173,12.2c-2.2,0-3.6-1.6-3.6-4.2c0-2.5,1.3-4.1,3.6-4.1c2.2,0,3.6,1.6,3.6,4.1
		C176.5,10.6,175.2,12.2,173,12.2z M173,4.7c-1.8,0-2.7,1.5-2.7,3.4c0,1.9,0.9,3.4,2.7,3.4c1.8,0,2.7-1.5,2.7-3.4
		C175.7,6.1,174.8,4.7,173,4.7z"/>
	<path class="st0" d="M188.1,8.6h1.6v0.8h-1.6V12h-0.9V9.3H182V8.4l4.7-7.1h1.4V8.6z M187.2,2.1L187.2,2.1l-4.4,6.5h4.4V2.1z"/>
	<path class="st0" d="M198.4,1.3l-4.8,5.1l5.1,5.6h-1.2l-4.9-5.4h0V12h-0.9V1.3h0.9v5h0l4.6-5H198.4z"/>
	<path class="st0" d="M212.7,12h-1.1l-1.4-1.6c-0.8,1.2-1.8,1.8-3.2,1.8c-1.7,0-3.1-1-3.1-2.9c0-1.6,1-2.6,2.5-3.3
		c-0.8-0.8-1.3-1.6-1.3-2.5c0-1.5,1.1-2.4,2.5-2.4c1.4,0,2.5,0.8,2.5,2.3c0,1.4-1.1,2.3-2.5,2.9l2.5,2.8c0.3-0.6,0.9-1.8,1.2-2.6
		h0.9c-0.4,0.9-1.1,2.4-1.5,3.2L212.7,12z M206.8,6.6c-1.4,0.6-2.1,1.4-2.1,2.7c0,1.3,0.9,2.2,2.3,2.2c1.2,0,2.1-0.7,2.6-1.7
		L206.8,6.6z M207.5,1.9c-1,0-1.7,0.7-1.7,1.7c0,0.9,0.5,1.5,1.2,2.3c1.1-0.5,2.1-1.1,2.1-2.4C209.2,2.4,208.5,1.9,207.5,1.9z"/>
	<path class="st0" d="M218.9,1.3h0.9V12h-0.9V1.3z"/>
	<path class="st0" d="M222.8,1.3h3.2c1.8,0,3.5,0.6,3.5,2.9c0,2.4-1.7,3.1-3.5,3.1h-2.4V12h-0.9V1.3z M223.7,6.6h2.3
		c1.3,0,2.7-0.4,2.7-2.3c0-1.9-1.3-2.2-2.8-2.2h-2.2V6.6z"/>
	<path class="st0" d="M230.3,10.8h1.1V12h-1.1V10.8z"/>
</g>
</svg>
